Utils/Driver.class
Steps/Hooks.class
Steps/TechGlobalPaginationBaseSteps.class
Pages/TechGlobalPaginationPage.class
Utils/ConfigReader.class
Pages/TechGlobalTrainingBasePage.class
Pages/TechGlobalFrontendTestingHomePage.class
Utils/Waiter.class
Runners/Runner.class
